-------------------------------------------------------------------------------
Test set: com.epam.news.service.impl.UserServiceTest
-------------------------------------------------------------------------------
Tests run: 2, Failures: 0, Errors: 0, Skipped: 0, Time elapsed: 0.005 sec
